  dump main all custom ${dump_increment} dump/flow.${index}.${a}.lammpstrj     ${main_options}
  dump main all custom 1000 dump/flow.${index}.${a}.lammpstrj     ${main_options}
  dump main all custom 1000 dump/flow.0.${a}.lammpstrj     ${main_options}
  dump main all custom 1000 dump/flow.0.3.lammpstrj     ${main_options}
  dump main all custom 1000 dump/flow.0.3.lammpstrj     id type xu yu zu vx vy vz c_get_pe c_get_stress[1] c_get_stress[2] c_get_stress[3] c_get_stress[4] c_get_stress[5] c_get_stress[6]

  variable step_diff equal ${step_goal}-step
  variable step_diff equal 1000000000-step

  if "${step_diff} <= 0" then      "jump input/continue.flow skipped"

  if "${step_diff} < ${segment_steps}" then       "run ${step_goal} upto"   else       "run ${segment_steps}"
run ${segment_steps}
run 100000
Generated 0 of 1 mixed pair_coeff terms from geometric mixing rule
Per MPI rank memory allocation (min/avg/max) = 4.815 | 4.816 | 4.817 Mbytes
   Step          Temp          Press          PotEng    
    200000   1.0045497      31.424473      0.34344904   
    210000   1.0037903      31.427667      0.34316421   
    220000   1.0048745      31.399549      0.34247951   
    230000   1.0002607      31.39087       0.34209976   
    240000   1.0054036      31.395248      0.34181459   
    250000   1.0003108      31.436135      0.34281569   
    260000   1.0026421      31.39676       0.34152411   
    270000   1.0131416      31.411205      0.3420042    
    280000   0.998599       31.406487      0.34243652   
    290000   0.99743296     31.40028       0.3418805    
    300000   1.0136312      31.399008      0.34231791   
Loop time of 4.04307 on 32 procs for 100000 steps with 2124 atoms

Performance: 2136991.910 tau/day, 24733.703 timesteps/s, 52.534 Matom-step/s
99.6% CPU use with 32 MPI tasks x no OpenMP threads

MPI task timing breakdown:
Section |  min time  |  avg time  |  max time  |%varavg| %total
---------------------------------------------------------------
Pair    | 0.0058275  | 0.15995    | 0.35638    |  38.1 |  3.96
Neigh   | 0.0026212  | 0.021442   | 0.052552   |  12.8 |  0.53
Comm    | 2.5803     | 2.9059     | 3.2696     |  10.6 | 71.87
Output  | 0.048058   | 0.063092   | 0.077078   |   3.5 |  1.56
Modify  | 0.031455   | 0.072933   | 0.097554   |   7.1 |  1.80
Other   |            | 0.8198     |            |       | 20.28

Nlocal:         66.375 ave         138 max           2 min
Histogram: 16 0 0 0 0 0 0 0 6 10
Nghost:        223.781 ave         325 max         129 min
Histogram: 16 0 0 0 0 0 0 0 8 8
Neighs:        335.938 ave         792 max           0 min
Histogram: 16 0 0 0 0 0 0 4 9 3

Total # of neighbors = 10750
Ave neighs/atom = 5.0612053
Neighbor list builds = 973
Dangerous builds = 0
  undump main

next a
jump input/continue.flow loop

  log log/log.flow.${index}.${a}
  log log/log.flow.0.${a}
  log log/log.flow.0.4
