  dump main all custom ${dump_increment} dump/flow.${index}.${a}.lammpstrj     ${main_options}
  dump main all custom 1000 dump/flow.${index}.${a}.lammpstrj     ${main_options}
  dump main all custom 1000 dump/flow.0.${a}.lammpstrj     ${main_options}
  dump main all custom 1000 dump/flow.0.4.lammpstrj     ${main_options}
  dump main all custom 1000 dump/flow.0.4.lammpstrj     id type xu yu zu vx vy vz c_get_pe c_get_stress[1] c_get_stress[2] c_get_stress[3] c_get_stress[4] c_get_stress[5] c_get_stress[6]

  variable step_diff equal ${step_goal}-step
  variable step_diff equal 1000000000-step

  if "${step_diff} <= 0" then      "jump input/continue.flow skipped"

  if "${step_diff} < ${segment_steps}" then       "run ${step_goal} upto"   else       "run ${segment_steps}"
run ${segment_steps}
run 100000
Generated 0 of 1 mixed pair_coeff terms from geometric mixing rule
Per MPI rank memory allocation (min/avg/max) = 4.815 | 4.816 | 4.817 Mbytes
   Step          Temp          Press          PotEng    
    300000   1.0136312      31.399008      0.34231791   
    310000   1.0049626      31.416061      0.34098563   
    320000   1.0072485      31.407582      0.34286795   
    330000   1.0096116      31.396342      0.34236905   
    340000   1.0095963      31.451232      0.34293828   
    350000   1.0051173      31.398682      0.34340945   
    360000   1.0072906      31.399165      0.34180329   
    370000   1.0031264      31.407754      0.34155851   
    380000   1.0100486      31.389502      0.34179503   
    390000   1.0143801      31.403047      0.34280341   
    400000   1.0079836      31.409573      0.34229794   
Loop time of 4.04503 on 32 procs for 100000 steps with 2124 atoms

Performance: 2135953.269 tau/day, 24721.681 timesteps/s, 52.509 Matom-step/s
99.6% CPU use with 32 MPI tasks x no OpenMP threads

MPI task timing breakdown:
Section |  min time  |  avg time  |  max time  |%varavg| %total
---------------------------------------------------------------
Pair    | 0.006204   | 0.1601     | 0.35646    |  38.1 |  3.96
Neigh   | 0.0027674  | 0.021312   | 0.052279   |  12.7 |  0.53
Comm    | 2.5443     | 2.9076     | 3.2698     |  10.7 | 71.88
Output  | 0.047242   | 0.062512   | 0.076751   |   3.6 |  1.55
Modify  | 0.038579   | 0.072977   | 0.097651   |   7.2 |  1.80
Other   |            | 0.8205     |            |       | 20.28

Nlocal:         66.375 ave         138 max           2 min
Histogram: 16 0 0 0 0 0 0 0 6 10
Nghost:        222.438 ave         324 max         126 min
Histogram: 13 3 0 0 0 0 0 0 7 9
Neighs:        336.375 ave         792 max           0 min
Histogram: 16 0 0 0 0 0 0 4 9 3

Total # of neighbors = 10764
Ave neighs/atom = 5.0677966
Neighbor list builds = 967
Dangerous builds = 0
  undump main

next a
jump input/continue.flow loop

  log log/log.flow.${index}.${a}
  log log/log.flow.0.${a}
  log log/log.flow.0.5
