  dump main all custom ${dump_increment} dump/flow.${index}.${a}.lammpstrj     ${main_options}
  dump main all custom 1000 dump/flow.${index}.${a}.lammpstrj     ${main_options}
  dump main all custom 1000 dump/flow.0.${a}.lammpstrj     ${main_options}
  dump main all custom 1000 dump/flow.0.9.lammpstrj     ${main_options}
  dump main all custom 1000 dump/flow.0.9.lammpstrj     id type xu yu zu vx vy vz c_get_pe c_get_stress[1] c_get_stress[2] c_get_stress[3] c_get_stress[4] c_get_stress[5] c_get_stress[6]

  variable step_diff equal ${step_goal}-step
  variable step_diff equal 1000000000-step

  if "${step_diff} <= 0" then      "jump input/continue.flow skipped"

  if "${step_diff} < ${segment_steps}" then       "run ${step_goal} upto"   else       "run ${segment_steps}"
run ${segment_steps}
run 100000
Generated 0 of 1 mixed pair_coeff terms from geometric mixing rule
Per MPI rank memory allocation (min/avg/max) = 4.815 | 4.816 | 4.817 Mbytes
   Step          Temp          Press          PotEng    
    800000   1.0070485      31.4217        0.34161565   
    810000   1.0100341      31.388355      0.34051196   
    820000   1.0073366      31.491627      0.342894     
    830000   1.0069577      31.425514      0.34272455   
    840000   1.0120431      31.398988      0.3424481    
    850000   1.0046113      31.401676      0.34272337   
    860000   1.0033832      31.421325      0.34285824   
    870000   1.003875       31.391481      0.34277255   
    880000   1.0056941      31.397196      0.34326104   
    890000   1.0008381      31.405484      0.34244195   
    900000   1.0091047      31.395227      0.34258196   
Loop time of 4.0441 on 32 procs for 100000 steps with 2124 atoms

Performance: 2136443.226 tau/day, 24727.352 timesteps/s, 52.521 Matom-step/s
99.6% CPU use with 32 MPI tasks x no OpenMP threads

MPI task timing breakdown:
Section |  min time  |  avg time  |  max time  |%varavg| %total
---------------------------------------------------------------
Pair    | 0.0060894  | 0.16027    | 0.35641    |  38.0 |  3.96
Neigh   | 0.0027168  | 0.021723   | 0.052828   |  12.9 |  0.54
Comm    | 2.5856     | 2.9084     | 3.271      |  10.5 | 71.92
Output  | 0.048038   | 0.063035   | 0.077024   |   3.5 |  1.56
Modify  | 0.036767   | 0.073133   | 0.097833   |   6.8 |  1.81
Other   |            | 0.8175     |            |       | 20.21

Nlocal:         66.375 ave         138 max           3 min
Histogram: 16 0 0 0 0 0 0 0 6 10
Nghost:        222.969 ave         323 max         128 min
Histogram: 16 0 0 0 0 0 0 0 6 10
Neighs:        336.625 ave         792 max           0 min
Histogram: 16 0 0 0 0 0 0 4 9 3

Total # of neighbors = 10772
Ave neighs/atom = 5.0715631
Neighbor list builds = 966
Dangerous builds = 0
  undump main

next a
jump input/continue.flow loop

  log log/log.flow.${index}.${a}
  log log/log.flow.0.${a}
  log log/log.flow.0.10
