  dump main all custom ${dump_increment} dump/flow.${index}.${a}.lammpstrj     ${main_options}
  dump main all custom 1000 dump/flow.${index}.${a}.lammpstrj     ${main_options}
  dump main all custom 1000 dump/flow.0.${a}.lammpstrj     ${main_options}
  dump main all custom 1000 dump/flow.0.5.lammpstrj     ${main_options}
  dump main all custom 1000 dump/flow.0.5.lammpstrj     id type xu yu zu vx vy vz c_get_pe c_get_stress[1] c_get_stress[2] c_get_stress[3] c_get_stress[4] c_get_stress[5] c_get_stress[6]

  variable step_diff equal ${step_goal}-step
  variable step_diff equal 1000000000-step

  if "${step_diff} <= 0" then      "jump input/continue.flow skipped"

  if "${step_diff} < ${segment_steps}" then       "run ${step_goal} upto"   else       "run ${segment_steps}"
run ${segment_steps}
run 100000
Generated 0 of 1 mixed pair_coeff terms from geometric mixing rule
Per MPI rank memory allocation (min/avg/max) = 4.815 | 4.816 | 4.817 Mbytes
   Step          Temp          Press          PotEng    
    400000   1.0079836      31.409573      0.34229794   
    410000   1.0054088      31.443588      0.34291439   
    420000   1.0065115      31.391106      0.34244705   
    430000   1.0033698      31.394436      0.34239142   
    440000   1.0028064      31.40619       0.34238607   
    450000   1.0116676      31.403462      0.342623     
    460000   1.0081047      31.405552      0.34167163   
    470000   1.0077296      31.458587      0.34231653   
    480000   1.0065887      31.490738      0.34376319   
    490000   1.0058918      31.477587      0.34331827   
    500000   1.0055667      31.394661      0.34180788   
Loop time of 4.05137 on 32 procs for 100000 steps with 2124 atoms

Performance: 2132613.608 tau/day, 24683.028 timesteps/s, 52.427 Matom-step/s
99.6% CPU use with 32 MPI tasks x no OpenMP threads

MPI task timing breakdown:
Section |  min time  |  avg time  |  max time  |%varavg| %total
---------------------------------------------------------------
Pair    | 0.005918   | 0.16036    | 0.35639    |  38.1 |  3.96
Neigh   | 0.0028405  | 0.021433   | 0.052177   |  12.8 |  0.53
Comm    | 2.5754     | 2.9187     | 3.277      |  10.5 | 72.04
Output  | 0.047025   | 0.062058   | 0.076068   |   3.5 |  1.53
Modify  | 0.044874   | 0.072976   | 0.097588   |   6.9 |  1.80
Other   |            | 0.8158     |            |       | 20.14

Nlocal:         66.375 ave         138 max           2 min
Histogram: 16 0 0 0 0 0 0 0 6 10
Nghost:        222.625 ave         325 max         126 min
Histogram: 14 2 0 0 0 0 0 0 7 9
Neighs:            337 ave         792 max           0 min
Histogram: 16 0 0 0 0 0 0 4 9 3

Total # of neighbors = 10784
Ave neighs/atom = 5.0772128
Neighbor list builds = 964
Dangerous builds = 0
  undump main

next a
jump input/continue.flow loop

  log log/log.flow.${index}.${a}
  log log/log.flow.0.${a}
  log log/log.flow.0.6
