  dump main all custom ${dump_increment} dump/flow.${index}.${a}.lammpstrj     ${main_options}
  dump main all custom 1000 dump/flow.${index}.${a}.lammpstrj     ${main_options}
  dump main all custom 1000 dump/flow.0.${a}.lammpstrj     ${main_options}
  dump main all custom 1000 dump/flow.0.6.lammpstrj     ${main_options}
  dump main all custom 1000 dump/flow.0.6.lammpstrj     id type xu yu zu vx vy vz c_get_pe c_get_stress[1] c_get_stress[2] c_get_stress[3] c_get_stress[4] c_get_stress[5] c_get_stress[6]

  variable step_diff equal ${step_goal}-step
  variable step_diff equal 1000000000-step

  if "${step_diff} <= 0" then      "jump input/continue.flow skipped"

  if "${step_diff} < ${segment_steps}" then       "run ${step_goal} upto"   else       "run ${segment_steps}"
run ${segment_steps}
run 100000
Generated 0 of 1 mixed pair_coeff terms from geometric mixing rule
Per MPI rank memory allocation (min/avg/max) = 4.815 | 4.816 | 4.817 Mbytes
   Step          Temp          Press          PotEng    
    500000   1.0055667      31.394661      0.34180788   
    510000   0.99737814     31.410605      0.34040761   
    520000   1.0051924      31.441625      0.34159847   
    530000   1.0005232      31.399872      0.34250213   
    540000   1.0047627      31.396877      0.34153254   
    550000   1.0063767      31.393721      0.34273279   
    560000   1.0040497      31.430484      0.34187101   
    570000   1.0076481      31.407669      0.34248635   
    580000   1.0013749      31.386868      0.34200905   
    590000   1.0086226      31.415704      0.33924335   
    600000   0.99666888     31.386082      0.34187325   
Loop time of 4.02928 on 32 procs for 100000 steps with 2124 atoms

Performance: 2144301.309 tau/day, 24818.302 timesteps/s, 52.714 Matom-step/s
99.6% CPU use with 32 MPI tasks x no OpenMP threads

MPI task timing breakdown:
Section |  min time  |  avg time  |  max time  |%varavg| %total
---------------------------------------------------------------
Pair    | 0.0060984  | 0.16065    | 0.35643    |  38.0 |  3.99
Neigh   | 0.0026613  | 0.021691   | 0.052681   |  12.9 |  0.54
Comm    | 2.5555     | 2.8854     | 3.2538     |  11.1 | 71.61
Output  | 0.047241   | 0.062301   | 0.076284   |   3.5 |  1.55
Modify  | 0.038641   | 0.073025   | 0.099253   |   7.0 |  1.81
Other   |            | 0.8262     |            |       | 20.50

Nlocal:         66.375 ave         138 max           2 min
Histogram: 16 0 0 0 0 0 0 0 6 10
Nghost:        222.281 ave         325 max         125 min
Histogram: 14 2 0 0 0 0 0 0 6 10
Neighs:         336.75 ave         792 max           0 min
Histogram: 16 0 0 0 0 0 0 4 9 3

Total # of neighbors = 10776
Ave neighs/atom = 5.0734463
Neighbor list builds = 968
Dangerous builds = 0
  undump main

next a
jump input/continue.flow loop

  log log/log.flow.${index}.${a}
  log log/log.flow.0.${a}
  log log/log.flow.0.7
