  dump main all custom ${dump_increment} dump/flow.${index}.${a}.lammpstrj     ${main_options}
  dump main all custom 1000 dump/flow.${index}.${a}.lammpstrj     ${main_options}
  dump main all custom 1000 dump/flow.0.${a}.lammpstrj     ${main_options}
  dump main all custom 1000 dump/flow.0.2.lammpstrj     ${main_options}
  dump main all custom 1000 dump/flow.0.2.lammpstrj     id type xu yu zu vx vy vz c_get_pe c_get_stress[1] c_get_stress[2] c_get_stress[3] c_get_stress[4] c_get_stress[5] c_get_stress[6]

  variable step_diff equal ${step_goal}-step
  variable step_diff equal 1000000000-step

  if "${step_diff} <= 0" then      "jump input/continue.flow skipped"

  if "${step_diff} < ${segment_steps}" then       "run ${step_goal} upto"   else       "run ${segment_steps}"
run ${segment_steps}
run 100000
Generated 0 of 1 mixed pair_coeff terms from geometric mixing rule
Per MPI rank memory allocation (min/avg/max) = 4.815 | 4.816 | 4.817 Mbytes
   Step          Temp          Press          PotEng    
    100000   1.0034359      31.389324      0.34202454   
    110000   1.0048098      31.386431      0.34116934   
    120000   1.0033853      31.391341      0.3421605    
    130000   1.008639       31.392529      0.34264827   
    140000   1.0050088      31.40308       0.34162559   
    150000   1.0072147      31.389956      0.34215095   
    160000   1.0032464      31.422418      0.34210119   
    170000   1.0041617      31.431302      0.3418565    
    180000   1.0027586      31.393341      0.34287961   
    190000   1.0044869      31.399544      0.34176302   
    200000   1.0045497      31.424473      0.34344904   
Loop time of 4.03781 on 32 procs for 100000 steps with 2124 atoms

Performance: 2139775.179 tau/day, 24765.916 timesteps/s, 52.603 Matom-step/s
99.6% CPU use with 32 MPI tasks x no OpenMP threads

MPI task timing breakdown:
Section |  min time  |  avg time  |  max time  |%varavg| %total
---------------------------------------------------------------
Pair    | 0.0056662  | 0.1603     | 0.35643    |  38.2 |  3.97
Neigh   | 0.0024478  | 0.021283   | 0.051151   |  12.7 |  0.53
Comm    | 2.6037     | 2.9017     | 3.2617     |  10.5 | 71.86
Output  | 0.047969   | 0.063166   | 0.077113   |   3.5 |  1.56
Modify  | 0.029405   | 0.072854   | 0.097611   |   7.2 |  1.80
Other   |            | 0.8185     |            |       | 20.27

Nlocal:         66.375 ave         138 max           1 min
Histogram: 16 0 0 0 0 0 0 0 6 10
Nghost:        223.656 ave         326 max         132 min
Histogram: 16 0 0 0 0 0 0 0 9 7
Neighs:        335.875 ave         792 max           0 min
Histogram: 16 0 0 0 0 0 0 4 9 3

Total # of neighbors = 10748
Ave neighs/atom = 5.0602637
Neighbor list builds = 965
Dangerous builds = 0
  undump main

next a
jump input/continue.flow loop

  log log/log.flow.${index}.${a}
  log log/log.flow.0.${a}
  log log/log.flow.0.3
