  dump main all custom ${dump_increment} dump/flow.${index}.${a}.lammpstrj     ${main_options}
  dump main all custom 1000 dump/flow.${index}.${a}.lammpstrj     ${main_options}
  dump main all custom 1000 dump/flow.0.${a}.lammpstrj     ${main_options}
  dump main all custom 1000 dump/flow.0.1.lammpstrj     ${main_options}
  dump main all custom 1000 dump/flow.0.1.lammpstrj     id type xu yu zu vx vy vz c_get_pe c_get_stress[1] c_get_stress[2] c_get_stress[3] c_get_stress[4] c_get_stress[5] c_get_stress[6]

  variable step_diff equal ${step_goal}-step
  variable step_diff equal 1000000000-step

  if "${step_diff} <= 0" then      "jump input/continue.flow skipped"

  if "${step_diff} < ${segment_steps}" then       "run ${step_goal} upto"   else       "run ${segment_steps}"
run ${segment_steps}
run 100000
Generated 0 of 1 mixed pair_coeff terms from geometric mixing rule
Neighbor list info ...
  update: every = 1 steps, delay = 0 steps, check = yes
  max neighbors/atom: 2000, page size: 100000
  master list distance cutoff = 1.5
  ghost atom cutoff = 1.5
  binsize = 0.75, bins = 21 21 21
  1 neighbor lists, perpetual/occasional/extra = 1 0 0
  (1) pair table, perpetual
      attributes: half, newton on
      pair build: half/bin/atomonly/newton
      stencil: half/bin/3d
      bin: standard
Per MPI rank memory allocation (min/avg/max) = 3.94 | 3.941 | 3.942 Mbytes
   Step          Temp          Press          PotEng    
         0   0.99873956     31.39935       0.33410672   
     10000   1.0042093      31.416939      0.34131058   
     20000   1.0019304      31.432517      0.3422692    
     30000   1.0089292      31.413203      0.34076544   
     40000   1.0130868      31.446866      0.34175342   
     50000   1.007881       31.423282      0.34265097   
     60000   1.0089259      31.398267      0.34237923   
     70000   1.0068275      31.434813      0.34150268   
     80000   1.0069768      31.394878      0.34256175   
     90000   1.0045163      31.425524      0.34247022   
    100000   1.0034359      31.389324      0.34202454   
Loop time of 4.05475 on 32 procs for 100000 steps with 2124 atoms

Performance: 2130836.047 tau/day, 24662.454 timesteps/s, 52.383 Matom-step/s
99.6% CPU use with 32 MPI tasks x no OpenMP threads

MPI task timing breakdown:
Section |  min time  |  avg time  |  max time  |%varavg| %total
---------------------------------------------------------------
Pair    | 0.0065252  | 0.16056    | 0.35635    |  38.1 |  3.96
Neigh   | 0.0027929  | 0.021525   | 0.051645   |  12.7 |  0.53
Comm    | 2.6056     | 2.9101     | 3.274      |  10.6 | 71.77
Output  | 0.047473   | 0.0629     | 0.077097   |   3.6 |  1.55
Modify  | 0.041573   | 0.073225   | 0.09785    |   6.8 |  1.81
Other   |            | 0.8265     |            |       | 20.38

Nlocal:         66.375 ave         138 max           2 min
Histogram: 16 0 0 0 0 0 0 0 6 10
Nghost:        224.344 ave         327 max         129 min
Histogram: 16 0 0 0 0 0 0 0 9 7
Neighs:        336.625 ave         792 max           0 min
Histogram: 16 0 0 0 0 0 0 4 9 3

Total # of neighbors = 10772
Ave neighs/atom = 5.0715631
Neighbor list builds = 979
Dangerous builds = 0
  undump main

next a
jump input/continue.flow loop

  log log/log.flow.${index}.${a}
  log log/log.flow.0.${a}
  log log/log.flow.0.2
