  dump main all custom ${dump_increment} dump/flow.${index}.${a}.lammpstrj     ${main_options}
  dump main all custom 1000 dump/flow.${index}.${a}.lammpstrj     ${main_options}
  dump main all custom 1000 dump/flow.0.${a}.lammpstrj     ${main_options}
  dump main all custom 1000 dump/flow.0.7.lammpstrj     ${main_options}
  dump main all custom 1000 dump/flow.0.7.lammpstrj     id type xu yu zu vx vy vz c_get_pe c_get_stress[1] c_get_stress[2] c_get_stress[3] c_get_stress[4] c_get_stress[5] c_get_stress[6]

  variable step_diff equal ${step_goal}-step
  variable step_diff equal 1000000000-step

  if "${step_diff} <= 0" then      "jump input/continue.flow skipped"

  if "${step_diff} < ${segment_steps}" then       "run ${step_goal} upto"   else       "run ${segment_steps}"
run ${segment_steps}
run 100000
Generated 0 of 1 mixed pair_coeff terms from geometric mixing rule
Per MPI rank memory allocation (min/avg/max) = 4.815 | 4.816 | 4.817 Mbytes
   Step          Temp          Press          PotEng    
    600000   0.99666888     31.386082      0.34187325   
    610000   1.0108083      31.434256      0.342169     
    620000   1.0058415      31.417555      0.34170514   
    630000   1.0070131      31.39559       0.34109204   
    640000   1.0094328      31.402813      0.34096472   
    650000   1.0089352      31.428823      0.34187105   
    660000   1.0065114      31.400666      0.33962831   
    670000   1.0079632      31.419655      0.34245802   
    680000   1.0121419      31.3892        0.34014961   
    690000   1.0076456      31.393323      0.3415858    
    700000   1.0067923      31.389955      0.34189489   
Loop time of 4.04785 on 32 procs for 100000 steps with 2124 atoms

Performance: 2134467.474 tau/day, 24704.485 timesteps/s, 52.472 Matom-step/s
99.6% CPU use with 32 MPI tasks x no OpenMP threads

MPI task timing breakdown:
Section |  min time  |  avg time  |  max time  |%varavg| %total
---------------------------------------------------------------
Pair    | 0.006012   | 0.16047    | 0.35632    |  38.0 |  3.96
Neigh   | 0.0026911  | 0.021495   | 0.05271    |  12.8 |  0.53
Comm    | 2.5698     | 2.903      | 3.2737     |  10.7 | 71.72
Output  | 0.047459   | 0.062974   | 0.077011   |   3.5 |  1.56
Modify  | 0.042336   | 0.073702   | 0.097714   |   6.7 |  1.82
Other   |            | 0.8262     |            |       | 20.41

Nlocal:         66.375 ave         138 max           3 min
Histogram: 16 0 0 0 0 0 0 0 6 10
Nghost:        222.344 ave         328 max         128 min
Histogram: 16 0 0 0 0 0 0 0 8 8
Neighs:        337.031 ave         792 max           0 min
Histogram: 16 0 0 0 0 0 0 4 9 3

Total # of neighbors = 10785
Ave neighs/atom = 5.0776836
Neighbor list builds = 960
Dangerous builds = 0
  undump main

next a
jump input/continue.flow loop

  log log/log.flow.${index}.${a}
  log log/log.flow.0.${a}
  log log/log.flow.0.8
