  dump main all custom ${dump_increment} dump/flow.${index}.${a}.lammpstrj     ${main_options}
  dump main all custom 1000 dump/flow.${index}.${a}.lammpstrj     ${main_options}
  dump main all custom 1000 dump/flow.0.${a}.lammpstrj     ${main_options}
  dump main all custom 1000 dump/flow.0.8.lammpstrj     ${main_options}
  dump main all custom 1000 dump/flow.0.8.lammpstrj     id type xu yu zu vx vy vz c_get_pe c_get_stress[1] c_get_stress[2] c_get_stress[3] c_get_stress[4] c_get_stress[5] c_get_stress[6]

  variable step_diff equal ${step_goal}-step
  variable step_diff equal 1000000000-step

  if "${step_diff} <= 0" then      "jump input/continue.flow skipped"

  if "${step_diff} < ${segment_steps}" then       "run ${step_goal} upto"   else       "run ${segment_steps}"
run ${segment_steps}
run 100000
Generated 0 of 1 mixed pair_coeff terms from geometric mixing rule
Per MPI rank memory allocation (min/avg/max) = 4.815 | 4.816 | 4.817 Mbytes
   Step          Temp          Press          PotEng    
    700000   1.0067923      31.389955      0.34189489   
    710000   1.0049566      31.432665      0.34093884   
    720000   1.0083304      31.416222      0.34141236   
    730000   1.0080453      31.404567      0.34231117   
    740000   0.99892282     31.411667      0.34300603   
    750000   1.0017271      31.397839      0.34204478   
    760000   1.0081179      31.395397      0.34045061   
    770000   1.0004125      31.427654      0.34098651   
    780000   1.0124343      31.415236      0.34211806   
    790000   1.0065692      31.40302       0.34208911   
    800000   1.0070485      31.4217        0.34161565   
Loop time of 4.05135 on 32 procs for 100000 steps with 2124 atoms

Performance: 2132623.348 tau/day, 24683.141 timesteps/s, 52.427 Matom-step/s
99.6% CPU use with 32 MPI tasks x no OpenMP threads

MPI task timing breakdown:
Section |  min time  |  avg time  |  max time  |%varavg| %total
---------------------------------------------------------------
Pair    | 0.0063076  | 0.16031    | 0.35657    |  38.2 |  3.96
Neigh   | 0.0027538  | 0.021741   | 0.052888   |  12.9 |  0.54
Comm    | 2.581      | 2.9172     | 3.2743     |  10.4 | 72.01
Output  | 0.047397   | 0.062519   | 0.076498   |   3.5 |  1.54
Modify  | 0.041692   | 0.073285   | 0.097592   |   6.8 |  1.81
Other   |            | 0.8163     |            |       | 20.15

Nlocal:         66.375 ave         138 max           2 min
Histogram: 16 0 0 0 0 0 0 0 6 10
Nghost:            222 ave         326 max         127 min
Histogram: 16 0 0 0 0 0 0 0 7 9
Neighs:        336.719 ave         792 max           0 min
Histogram: 16 0 0 0 0 0 0 4 9 3

Total # of neighbors = 10775
Ave neighs/atom = 5.0729755
Neighbor list builds = 973
Dangerous builds = 0
  undump main

next a
jump input/continue.flow loop

  log log/log.flow.${index}.${a}
  log log/log.flow.0.${a}
  log log/log.flow.0.9
