ITEM: timestep xlo_bound xhi_bound xy ylo_bound yhi_bound xz zlo_bound zhi_bound yz
0    0 13.7823 0 0 13.7823 0 0 13.7823 0
100000    0 19.2953 5.51293 0 13.7823 0 0 13.7823 0
200000    -2.75647 13.7823 -2.75647 0 13.7823 0 0 13.7823 0
